%YAML 1.1
%TAG !u! tag:unity3d.com,2011:
--- !u!114 &11400000
MonoBehaviour:
  m_ObjectHideFlags: 0
  m_CorrespondingSourceObject: {fileID: 0}
  m_PrefabInstance: {fileID: 0}
  m_PrefabAsset: {fileID: 0}
  m_GameObject: {fileID: 0}
  m_Enabled: 1
  m_EditorHideFlags: 0
  m_Script: {fileID: 11500000, guid: cea805bb40211d54684e0a1bccd6532c, type: 3}
  m_Name: mouth_8
  m_EditorClassIdentifier: 
  itemName: mouth_8
  displayName: 
  itemType: 1
  unlocksAt: 0
  itemPrice: 1
  itemImage: {fileID: 21300000, guid: 403c1b8c1fda17042a928fac3db0e566, type: 3}
  itemUIImage: {fileID: 21300000, guid: 4e73c6d930decea469ae65354010066a, type: 3}
  voice: {fileID: 8300000, guid: b4799350575d2cb409b8412d1ca706cc, type: 3}
